id,name,model_id:id,group_id:id,perm_read,perm_write,perm_create,perm_unlink
access_bi_statement_line,bi_statement_line,model_bi_statement_line,account.group_account_invoice,1,1,1,1
access_bi_statement_line_user,bi_statement_line_user,model_bi_statement_line,base.group_user,1,0,0,0

access_bi_vendor_statement_line,bi_vendor_statement_line,model_bi_vendor_statement_line,account.group_account_invoice,1,1,1,1
access_bi_vendor_statement_line_user,bi_vendor_statement_line_user,model_bi_vendor_statement_line,base.group_user,1,0,0,0

access_monthly_statement_line,bi_monthly_statement_line,model_monthly_statement_line,account.group_account_invoice,1,1,1,1
access_monthly_statement_line_user,bi_monthly_statement_line_user,model_monthly_statement_line,base.group_user,1,0,0,0


access_weekly_statement_line,access_weekly_statement_line,model_weekly_statement_line,account.group_account_invoice,1,1,1,1
access_weekly_statement_line_user,access_weekly_statement_line_user,model_weekly_statement_line,base.group_user,1,0,0,0


access_custom_statement_line,access_custom_statement_line,model_custom_statement_line,account.group_account_invoice,1,1,1,1
access_custom_statement_line_user,access_custom_statement_line_user,model_custom_statement_line,base.group_user,1,0,0,0

access_account_move_user,account.move.user,account.model_account_move,base.group_user,1,0,0,0
